<svg width="2158" height="945" viewBox="0 0 2158 945" fill="none" xmlns="http://www.w3.org/2000/svg">
<g opacity="0.5">
<path d="M987.761 359.238L1139.13 360.22L1132.61 392.456L1126.55 424.006L1120.42 455.368L1118.33 490.071L1120.36 523.988L1125.71 553.298L1131.34 587.614L1137.46 618.054L986.088 617.072L993.174 586.717L999.063 552.476L1003.24 523.228L1004.5 488.957L1004.21 454.613L999.902 423.184L994.46 388.556L987.761 359.238Z" fill="#A5DA8D"/>
<path d="M1086.79 359.881L1139.07 360.22L1132.55 392.455L1126.48 424.005L1120.36 455.367L1118.26 490.071L1120.3 523.988L1125.64 553.298L1131.28 587.613L1137.39 618.054L1085.11 617.715L1085.31 587.315L1085.53 553.037L1085.72 523.764L1085.94 489.861L1086.17 455.145L1086.37 423.745L1086.61 387.653L1086.79 359.881Z" fill="#CBDF79"/>
<rect x="975.529" y="617.003" width="172.556" height="16.889" rx="8.44452" transform="rotate(0.37184 975.529 617.003)" fill="#6EAE75"/>
<path d="M674.49 364.336C680.572 346.171 776.646 360.345 855.944 385.432C935.242 410.519 967.736 437.018 961.653 455.184C926.753 444.142 897.369 434.847 818.071 409.76C738.773 384.673 712.574 376.384 674.49 364.336Z" fill="#A5DA8D"/>
<path d="M674.509 364.276C668.427 382.441 754.679 425.948 833.977 451.035C913.275 476.122 955.59 473.289 961.673 455.124C926.772 444.083 897.389 434.787 818.091 409.7C738.793 384.613 712.594 376.325 674.509 364.276Z" fill="#A5DA8D"/>
<path d="M837.962 279.468C848.572 269.42 904.317 308.326 945.355 349.224C986.394 390.123 997.185 417.527 986.575 427.575C968.513 409.574 953.307 394.42 912.269 353.521C871.23 312.623 857.672 299.11 837.962 279.468Z" fill="#A5DA8D"/>
<path d="M837.997 279.435C827.387 289.483 866 344.614 907.038 385.512C948.076 426.411 976 437.59 986.61 427.542C968.548 409.541 953.342 394.387 912.304 353.488C871.265 312.59 857.707 299.077 837.997 279.435Z" fill="#A5DA8D"/>
<path d="M776.608 553.716C771.643 538.104 837.304 504.609 897.906 486.438C958.507 468.266 991.101 472.299 996.066 487.91C969.395 495.907 946.939 502.641 886.337 520.813C825.736 538.984 805.714 544.988 776.608 553.716Z" fill="#A5DA8D"/>
<path d="M776.592 553.664C781.558 569.276 855.236 560.989 915.837 542.817C976.439 524.645 1001.02 503.47 996.05 487.859C969.378 495.856 946.923 502.59 886.321 520.762C825.72 538.933 805.697 544.937 776.592 553.664Z" fill="#A5DA8D"/>
<path d="M985.978 633.961L1137.35 634.943L1130.83 667.178L1124.76 698.729L1118.64 730.091L1116.54 764.794L1118.58 798.711L1123.93 828.021L1129.56 862.337L1135.67 892.777L984.305 891.795L991.391 861.44L997.28 827.199L1001.46 797.951L1002.71 763.68L1002.42 729.336L998.119 697.907L992.677 663.279L985.978 633.961Z" fill="#A5DA8D"/>
<path d="M1085 634.604L1137.28 634.943L1130.76 667.178L1124.7 698.728L1118.57 730.09L1116.48 764.794L1118.51 798.711L1123.86 828.02L1129.5 862.336L1135.61 892.777L1083.33 892.438L1083.53 862.038L1083.75 827.76L1083.94 798.486L1084.16 764.584L1084.38 729.868L1084.59 698.468L1084.82 662.376L1085 634.604Z" fill="#CBDF79"/>
<rect x="973.746" y="891.726" width="172.556" height="16.889" rx="8.44452" transform="rotate(0.37184 973.746 891.726)" fill="#6EAE75"/>
<path d="M1468.61 753.759C1470.13 772.806 1375.79 795.387 1292.66 801.652C1209.52 807.918 1169.08 795.495 1167.55 776.448C1204.14 773.69 1234.94 771.369 1318.08 765.103C1401.21 758.838 1428.68 756.768 1468.61 753.759Z" fill="#A5DA8D"/>
<path d="M1468.61 753.821C1467.08 734.774 1370.27 726.599 1287.14 732.864C1204 739.13 1166.02 757.463 1167.55 776.51C1204.14 773.753 1234.95 771.431 1318.08 765.166C1401.22 758.9 1428.68 756.83 1468.61 753.821Z" fill="#A5DA8D"/>
<path d="M1308.08 621.158C1316.82 632.792 1269.28 680.858 1221.79 714.498C1174.31 748.138 1144.86 754.613 1136.12 742.979C1157.02 728.173 1174.62 715.708 1222.1 682.068C1269.59 648.428 1285.28 637.314 1308.08 621.158Z" fill="#A5DA8D"/>
<path d="M1308.11 621.196C1299.37 609.562 1237.73 638.842 1190.25 672.482C1142.76 706.122 1127.42 731.383 1136.15 743.017C1157.05 728.211 1174.64 715.746 1222.13 682.106C1269.62 648.466 1285.3 637.352 1308.11 621.196Z" fill="#A5DA8D"/>
<path d="M1330.25 917.555C1321.79 931.672 1251.93 907.408 1197.12 876.388C1142.3 845.369 1123.27 819.339 1131.73 805.222C1155.86 818.875 1176.17 830.369 1230.99 861.389C1285.81 892.408 1303.92 902.657 1330.25 917.555Z" fill="#A5DA8D"/>
<path d="M1330.22 917.601C1338.68 903.484 1282.49 856.426 1227.67 825.406C1172.85 794.386 1140.16 791.152 1131.7 805.269C1155.83 818.921 1176.14 830.415 1230.96 861.435C1285.78 892.455 1303.89 902.703 1330.22 917.601Z" fill="#A5DA8D"/>
<path d="M993.007 86.9043L1144.38 87.8867L1137.86 120.122L1131.79 151.672L1125.67 183.034L1123.57 217.737L1125.61 251.655L1130.95 280.964L1136.59 315.28L1142.7 345.721L991.334 344.738L998.42 314.383L1004.31 280.142L1008.49 250.895L1009.74 216.623L1009.45 182.28L1005.15 150.85L999.706 116.223L993.007 86.9043Z" fill="#A5DA8D"/>
<path d="M1092.03 87.5469L1144.31 87.8862L1137.79 120.121L1131.73 151.672L1125.6 183.034L1123.51 217.737L1125.54 251.654L1130.89 280.964L1136.53 315.28L1142.64 345.72L1090.36 345.381L1090.56 314.981L1090.78 280.704L1090.97 251.43L1091.19 217.527L1091.41 182.812L1091.62 151.411L1091.85 115.319L1092.03 87.5469Z" fill="#CBDF79"/>
<path d="M977.003 353.09C977.033 348.426 980.838 344.67 985.502 344.7L1141.17 345.711C1145.83 345.741 1149.58 349.546 1149.55 354.21C1149.52 358.873 1145.72 362.63 1141.06 362.599L985.392 361.589C980.728 361.559 976.972 357.754 977.003 353.09Z" fill="#6EAE75"/>
<path d="M1475.63 206.702C1477.16 225.749 1382.82 248.33 1299.69 254.596C1216.55 260.861 1176.1 248.438 1174.58 229.391C1211.17 226.634 1241.97 224.312 1325.11 218.047C1408.24 211.781 1435.71 209.711 1475.63 206.702Z" fill="#A5DA8D"/>
<path d="M1475.64 206.764C1474.11 187.717 1377.3 179.542 1294.17 185.808C1211.03 192.073 1173.05 210.407 1174.58 229.454C1211.17 226.696 1241.98 224.375 1325.11 218.109C1408.25 211.844 1435.71 209.773 1475.64 206.764Z" fill="#A5DA8D"/>
<path d="M1315.11 74.1011C1323.84 85.7351 1276.31 133.802 1228.82 167.442C1181.34 201.082 1151.89 207.556 1143.15 195.922C1164.05 181.117 1181.65 168.652 1229.13 135.012C1276.62 101.372 1292.3 90.2573 1315.11 74.1011Z" fill="#A5DA8D"/>
<path d="M1315.14 74.1391C1306.4 62.5051 1244.76 91.7854 1197.28 125.425C1149.79 159.065 1134.44 184.326 1143.18 195.96C1164.08 181.155 1181.67 168.69 1229.16 135.05C1276.64 101.41 1292.33 90.2954 1315.14 74.1391Z" fill="#A5DA8D"/>
<path d="M1337.27 370.498C1328.81 384.615 1258.96 360.352 1204.14 329.332C1149.33 298.312 1130.3 272.283 1138.76 258.166C1162.88 271.818 1183.2 283.312 1238.02 314.332C1292.83 345.352 1310.95 355.601 1337.27 370.498Z" fill="#A5DA8D"/>
<path d="M1337.25 370.545C1345.71 356.428 1289.52 309.369 1234.7 278.349C1179.88 247.329 1147.19 244.095 1138.73 258.212C1162.86 271.864 1183.17 283.359 1237.99 314.378C1292.81 345.398 1310.92 355.647 1337.25 370.545Z" fill="#A5DA8D"/>
</g>
<g opacity="0.5">
<path d="M1670.31 99.1814L1821.68 100.164L1815.16 132.399L1809.09 163.949L1802.96 195.311L1800.87 230.015L1802.91 263.932L1808.25 293.241L1813.89 327.557L1820 357.998L1668.63 357.015L1675.72 326.66L1681.61 292.419L1685.79 263.172L1687.04 228.901L1686.75 194.557L1682.45 163.127L1677 128.5L1670.31 99.1814Z" fill="#A5DA8D"/>
<path d="M1769.33 99.824L1821.61 100.163L1815.09 132.399L1809.03 163.949L1802.9 195.311L1800.81 230.014L1802.84 263.931L1808.19 293.241L1813.83 327.557L1819.94 357.997L1767.66 357.658L1767.85 327.258L1768.08 292.981L1768.27 263.707L1768.49 229.804L1768.71 195.089L1768.92 163.688L1769.15 127.597L1769.33 99.824Z" fill="#CBDF79"/>
<rect x="1658.07" y="356.947" width="172.556" height="16.889" rx="8.44452" transform="rotate(0.37184 1658.07 356.947)" fill="#6EAE75"/>
<path d="M1357.03 104.279C1363.12 86.1139 1459.19 100.288 1538.49 125.375C1617.79 150.462 1650.28 176.962 1644.2 195.127C1609.3 184.086 1579.91 174.79 1500.62 149.703C1421.32 124.616 1395.12 116.328 1357.03 104.279Z" fill="#A5DA8D"/>
<path d="M1357.05 104.22C1350.97 122.385 1437.22 165.892 1516.52 190.979C1595.82 216.066 1638.13 213.233 1644.22 195.067C1609.32 184.026 1579.93 174.73 1500.64 149.644C1421.34 124.557 1395.14 116.268 1357.05 104.22Z" fill="#A5DA8D"/>
<path d="M1520.51 19.4113C1531.12 9.36339 1586.86 48.2689 1627.9 89.1674C1668.94 130.066 1679.73 157.47 1669.12 167.518C1651.06 149.518 1635.85 134.363 1594.81 93.4646C1553.77 52.5661 1540.22 39.0536 1520.51 19.4113Z" fill="#A5DA8D"/>
<path d="M1520.54 19.3784C1509.93 29.4264 1548.54 84.557 1589.58 125.455C1630.62 166.354 1658.54 177.533 1669.15 167.485C1651.09 149.485 1635.89 134.33 1594.85 93.4317C1553.81 52.5332 1540.25 39.0207 1520.54 19.3784Z" fill="#A5DA8D"/>
<path d="M1459.15 293.659C1454.19 278.048 1519.85 244.553 1580.45 226.381C1641.05 208.209 1673.65 212.242 1678.61 227.853C1651.94 235.851 1629.48 242.584 1568.88 260.756C1508.28 278.928 1488.26 284.932 1459.15 293.659Z" fill="#A5DA8D"/>
<path d="M1459.14 293.608C1464.1 309.219 1537.78 300.932 1598.38 282.761C1658.98 264.589 1683.56 243.413 1678.59 227.802C1651.92 235.8 1629.47 242.533 1568.87 260.705C1508.26 278.877 1488.24 284.881 1459.14 293.608Z" fill="#A5DA8D"/>
<path d="M1666.77 644.123L1818.14 645.106L1811.62 677.341L1805.56 708.891L1799.43 740.253L1797.34 774.956L1799.37 808.874L1804.72 838.183L1810.35 872.499L1816.47 902.94L1665.1 901.957L1672.18 871.602L1678.07 837.361L1682.25 808.113L1683.51 773.842L1683.21 739.499L1678.91 708.069L1673.47 673.442L1666.77 644.123Z" fill="#A5DA8D"/>
<path d="M1765.79 644.766L1818.07 645.105L1811.55 677.34L1805.49 708.89L1799.36 740.252L1797.27 774.956L1799.3 808.873L1804.65 838.183L1810.29 872.499L1816.4 902.939L1764.12 902.6L1764.32 872.2L1764.54 837.922L1764.73 808.649L1764.95 774.746L1765.17 740.031L1765.38 708.63L1765.61 672.538L1765.79 644.766Z" fill="#CBDF79"/>
<rect x="1654.54" y="901.889" width="172.556" height="16.889" rx="8.44452" transform="rotate(0.37184 1654.54 901.889)" fill="#6EAE75"/>
<path d="M1353.5 649.221C1359.58 631.056 1455.65 645.23 1534.95 670.317C1614.25 695.404 1646.74 721.904 1640.66 740.069C1605.76 729.028 1576.38 719.732 1497.08 694.645C1417.78 669.558 1391.58 661.269 1353.5 649.221Z" fill="#A5DA8D"/>
<path d="M1353.52 649.161C1347.43 667.327 1433.69 710.834 1512.98 735.921C1592.28 761.007 1634.6 758.174 1640.68 740.009C1605.78 728.968 1576.4 719.672 1497.1 694.585C1417.8 669.498 1391.6 661.21 1353.52 649.161Z" fill="#A5DA8D"/>
<path d="M1516.97 564.353C1527.58 554.305 1583.33 593.211 1624.36 634.109C1665.4 675.008 1676.19 702.412 1665.58 712.46C1647.52 694.46 1632.31 679.305 1591.28 638.406C1550.24 597.508 1536.68 583.995 1516.97 564.353Z" fill="#A5DA8D"/>
<path d="M1517.01 564.32C1506.4 574.368 1545.01 629.499 1586.05 670.397C1627.08 711.296 1655.01 722.475 1665.62 712.427C1647.56 694.427 1632.35 679.272 1591.31 638.373C1550.27 597.475 1536.71 583.962 1517.01 564.32Z" fill="#A5DA8D"/>
<path d="M1455.62 838.601C1450.65 822.99 1516.31 789.495 1576.91 771.323C1637.52 753.151 1670.11 757.184 1675.07 772.795C1648.4 780.793 1625.95 787.526 1565.35 805.698C1504.74 823.87 1484.72 829.874 1455.62 838.601Z" fill="#A5DA8D"/>
<path d="M1455.6 838.55C1460.57 854.161 1534.24 845.874 1594.85 827.703C1655.45 809.531 1680.02 788.355 1675.06 772.744C1648.39 780.742 1625.93 787.475 1565.33 805.647C1504.73 823.819 1484.71 829.822 1455.6 838.55Z" fill="#A5DA8D"/>
<path d="M1668.52 373.904L1819.89 374.887L1813.37 407.122L1807.31 438.672L1801.18 470.034L1799.09 504.737L1801.12 538.655L1806.47 567.964L1812.11 602.28L1818.22 632.721L1666.85 631.738L1673.94 601.383L1679.82 567.142L1684.01 537.894L1685.26 503.623L1684.97 469.28L1680.66 437.85L1675.22 403.223L1668.52 373.904Z" fill="#A5DA8D"/>
<path d="M1767.55 374.547L1819.83 374.886L1813.31 407.121L1807.24 438.671L1801.12 470.033L1799.02 504.737L1801.06 538.654L1806.41 567.964L1812.04 602.28L1818.15 632.72L1765.87 632.381L1766.07 601.981L1766.29 567.703L1766.48 538.43L1766.7 504.527L1766.93 469.812L1767.13 438.411L1767.37 402.319L1767.55 374.547Z" fill="#CBDF79"/>
<rect x="1656.29" y="631.67" width="172.556" height="16.889" rx="8.44452" transform="rotate(0.37184 1656.29 631.67)" fill="#6EAE75"/>
<path d="M2151.15 493.702C2152.68 512.749 2058.34 535.33 1975.2 541.596C1892.07 547.861 1851.62 535.438 1850.09 516.391C1886.68 513.634 1917.49 511.312 2000.62 505.047C2083.76 498.781 2111.22 496.711 2151.15 493.702Z" fill="#A5DA8D"/>
<path d="M2151.16 493.764C2149.63 474.717 2052.82 466.542 1969.68 472.807C1886.55 479.073 1848.57 497.407 1850.1 516.454C1886.69 513.696 1917.49 511.375 2000.63 505.109C2083.76 498.844 2111.23 496.773 2151.16 493.764Z" fill="#A5DA8D"/>
<path d="M1990.63 361.101C1999.36 372.735 1951.82 420.802 1904.34 454.442C1856.85 488.082 1827.4 494.556 1818.67 482.922C1839.57 468.117 1857.16 455.652 1904.65 422.012C1952.13 388.372 1967.82 377.257 1990.63 361.101Z" fill="#A5DA8D"/>
<path d="M1990.65 361.139C1981.92 349.505 1920.28 378.785 1872.79 412.425C1825.31 446.065 1809.96 471.326 1818.7 482.96C1839.59 468.155 1857.19 455.69 1904.67 422.05C1952.16 388.41 1967.85 377.295 1990.65 361.139Z" fill="#A5DA8D"/>
<path d="M2012.79 657.498C2004.33 671.615 1934.48 647.352 1879.66 616.332C1824.84 585.312 1805.81 559.283 1814.27 545.166C1838.4 558.818 1858.71 570.312 1913.53 601.332C1968.35 632.352 1986.46 642.601 2012.79 657.498Z" fill="#A5DA8D"/>
<path d="M2012.76 657.544C2021.22 643.428 1965.03 596.369 1910.21 565.349C1855.39 534.329 1822.71 531.095 1814.25 545.212C1838.37 558.864 1858.69 570.359 1913.5 601.378C1968.32 632.398 1986.43 642.647 2012.76 657.544Z" fill="#A5DA8D"/>
</g>
<g opacity="0.5">
<path d="M327.761 334.238L479.13 335.22L472.611 367.456L466.547 399.006L460.42 430.368L458.327 465.071L460.361 498.988L465.708 528.298L471.345 562.614L477.457 593.054L326.088 592.072L333.174 561.717L339.063 527.476L343.244 498.228L344.497 463.957L344.205 429.613L339.902 398.184L334.46 363.556L327.761 334.238Z" fill="#A5DA8D"/>
<path d="M426.785 334.881L479.066 335.22L472.547 367.455L466.483 399.005L460.356 430.367L458.263 465.071L460.297 498.988L465.644 528.298L471.28 562.613L477.393 593.054L425.112 592.715L425.309 562.315L425.532 528.037L425.722 498.764L425.942 464.861L426.167 430.145L426.371 398.745L426.605 362.653L426.785 334.881Z" fill="#CBDF79"/>
<rect x="315.529" y="592.003" width="172.556" height="16.889" rx="8.44452" transform="rotate(0.37184 315.529 592.003)" fill="#6EAE75"/>
<path d="M14.4893 339.336C20.5718 321.171 116.646 335.345 195.944 360.432C275.242 385.519 307.735 412.018 301.653 430.184C266.752 419.142 237.369 409.847 158.071 384.76C78.7731 359.673 52.5737 351.384 14.4893 339.336Z" fill="#A5DA8D"/>
<path d="M14.5091 339.276C8.4266 357.441 94.6789 400.948 173.977 426.035C253.275 451.122 295.59 448.289 301.673 430.124C266.772 419.083 237.389 409.787 158.091 384.7C78.7928 359.613 52.5935 351.325 14.5091 339.276Z" fill="#A5DA8D"/>
<path d="M177.962 254.468C188.572 244.42 244.317 283.326 285.355 324.224C326.394 365.123 337.185 392.527 326.575 402.575C308.513 384.574 293.307 369.42 252.269 328.521C211.23 287.623 197.672 274.11 177.962 254.468Z" fill="#A5DA8D"/>
<path d="M177.997 254.435C167.387 264.483 206 319.614 247.038 360.512C288.076 401.411 316 412.59 326.61 402.542C308.548 384.541 293.342 369.387 252.304 328.488C211.265 287.59 197.707 274.077 177.997 254.435Z" fill="#A5DA8D"/>
<path d="M116.608 528.716C111.643 513.104 177.304 479.609 237.906 461.438C298.507 443.266 331.101 447.299 336.066 462.91C309.395 470.907 286.939 477.641 226.337 495.813C165.736 513.984 145.714 519.988 116.608 528.716Z" fill="#A5DA8D"/>
<path d="M116.592 528.665C121.558 544.276 195.236 535.989 255.837 517.817C316.439 499.645 341.015 478.47 336.05 462.859C309.378 470.856 286.923 477.59 226.321 495.762C165.72 513.933 145.697 519.937 116.592 528.665Z" fill="#A5DA8D"/>
<path d="M325.978 608.961L477.347 609.943L470.828 642.178L464.764 673.729L458.637 705.091L456.545 739.794L458.578 773.711L463.925 803.021L469.562 837.337L475.674 867.777L324.305 866.795L331.391 836.44L337.28 802.199L341.461 772.951L342.714 738.68L342.422 704.336L338.119 672.907L332.677 638.279L325.978 608.961Z" fill="#A5DA8D"/>
<path d="M425.002 609.604L477.283 609.943L470.764 642.178L464.7 673.728L458.573 705.09L456.48 739.794L458.514 773.711L463.861 803.02L469.497 837.336L475.61 867.777L423.329 867.438L423.526 837.038L423.749 802.76L423.939 773.486L424.159 739.584L424.384 704.868L424.588 673.468L424.822 637.376L425.002 609.604Z" fill="#CBDF79"/>
<rect x="313.746" y="866.726" width="172.556" height="16.889" rx="8.44452" transform="rotate(0.37184 313.746 866.726)" fill="#6EAE75"/>
<path d="M808.606 728.759C810.134 747.806 715.793 770.387 632.658 776.652C549.523 782.918 509.075 770.495 507.547 751.448C544.136 748.69 574.941 746.369 658.076 740.103C741.212 733.838 768.679 731.768 808.606 728.759Z" fill="#A5DA8D"/>
<path d="M808.611 728.821C807.083 709.774 710.274 701.599 627.139 707.864C544.004 714.13 506.024 732.463 507.552 751.51C544.141 748.753 574.946 746.431 658.082 740.166C741.217 733.9 768.684 731.83 808.611 728.821Z" fill="#A5DA8D"/>
<path d="M648.081 596.158C656.815 607.792 609.277 655.858 561.792 689.498C514.307 723.138 484.856 729.613 476.122 717.979C497.021 703.173 514.616 690.708 562.101 657.068C609.586 623.428 625.275 612.314 648.081 596.158Z" fill="#A5DA8D"/>
<path d="M648.109 596.196C639.375 584.562 577.732 613.842 530.247 647.482C482.762 681.122 467.416 706.383 476.15 718.017C497.049 703.211 514.645 690.746 562.13 657.106C609.615 623.466 625.304 612.352 648.109 596.196Z" fill="#A5DA8D"/>
<path d="M670.245 892.555C661.786 906.672 591.934 882.408 537.115 851.389C482.296 820.369 463.269 794.339 471.729 780.223C495.856 793.875 516.168 805.369 570.987 836.389C625.806 867.409 643.918 877.657 670.245 892.555Z" fill="#A5DA8D"/>
<path d="M670.218 892.601C678.678 878.484 622.487 831.426 567.668 800.406C512.849 769.386 480.161 766.152 471.701 780.269C495.828 793.921 516.141 805.415 570.959 836.435C625.778 867.455 643.89 877.703 670.218 892.601Z" fill="#A5DA8D"/>
<path d="M333.007 61.9043L484.377 62.8867L477.857 95.1219L471.793 126.672L465.666 158.034L463.574 192.737L465.607 226.655L470.954 255.964L476.591 290.28L482.703 320.721L331.334 319.738L338.42 289.383L344.309 255.142L348.49 225.895L349.743 191.623L349.451 157.28L345.148 125.85L339.706 91.2227L333.007 61.9043Z" fill="#A5DA8D"/>
<path d="M432.031 62.5469L484.312 62.8862L477.793 95.1214L471.729 126.672L465.601 158.034L463.509 192.737L465.542 226.654L470.89 255.964L476.526 290.28L482.639 320.72L430.358 320.381L430.555 289.981L430.778 255.704L430.968 226.43L431.188 192.527L431.413 157.812L431.617 126.411L431.851 90.3194L432.031 62.5469Z" fill="#CBDF79"/>
<path d="M317.003 328.09C317.033 323.426 320.838 319.67 325.502 319.7L481.165 320.711C485.829 320.741 489.585 324.546 489.555 329.21C489.524 333.873 485.719 337.63 481.056 337.599L325.392 336.589C320.728 336.559 316.972 332.754 317.003 328.09Z" fill="#6EAE75"/>
<path d="M815.635 181.702C817.163 200.749 722.823 223.33 639.687 229.596C556.552 235.861 516.104 223.438 514.576 204.391C551.165 201.634 581.97 199.312 665.105 193.047C748.241 186.781 775.708 184.711 815.635 181.702Z" fill="#A5DA8D"/>
<path d="M815.64 181.764C814.112 162.717 717.303 154.542 634.168 160.808C551.033 167.073 513.053 185.407 514.581 204.454C551.17 201.696 581.975 199.375 665.111 193.109C748.246 186.844 775.713 184.773 815.64 181.764Z" fill="#A5DA8D"/>
<path d="M655.11 49.1011C663.844 60.7351 616.306 108.802 568.821 142.442C521.336 176.082 491.885 182.556 483.151 170.922C504.05 156.117 521.645 143.652 569.13 110.012C616.616 76.3717 632.304 65.2573 655.11 49.1011Z" fill="#A5DA8D"/>
<path d="M655.138 49.1391C646.404 37.5051 584.761 66.7854 537.276 100.425C489.791 134.065 474.445 159.326 483.179 170.96C504.078 156.155 521.674 143.69 569.159 110.05C616.644 76.4097 632.333 65.2954 655.138 49.1391Z" fill="#A5DA8D"/>
<path d="M677.274 345.498C668.814 359.615 598.963 335.352 544.144 304.332C489.325 273.312 470.298 247.283 478.758 233.166C502.885 246.818 523.197 258.312 578.016 289.332C632.835 320.352 650.947 330.601 677.274 345.498Z" fill="#A5DA8D"/>
<path d="M677.246 345.545C685.706 331.428 629.515 284.369 574.697 253.349C519.878 222.329 487.19 219.095 478.73 233.212C502.857 246.864 523.169 258.359 577.988 289.378C632.807 320.398 650.919 330.647 677.246 345.545Z" fill="#A5DA8D"/>
</g>
</svg>
